[gd_scene load_steps=3 format=1]

[ext_resource path="res://Sprites/Tiles/Tileset.png" type="Texture" id=1]

[sub_resource type="RectangleShape2D" id=1]

custom_solver_bias = 0.0
extents = Vector2( 8, 8 )

[node name="One_Way_Collider" type="Sprite"]

visibility/self_opacity = 0.0
visibility/behind_parent = true
texture = ExtResource( 1 )
vframes = 2
hframes = 3
modulate = Color( 0.84375, 0.711785, 0.431765, 1 )

[node name="Sprite" type="StaticBody2D" parent="."]

input/pickable = false
shapes/0/shape = SubResource( 1 )
shapes/0/transform = Matrix32( 1, 0, 0, 1, 0, 0 )
shapes/0/trigger = false
collision/layers = 1
collision/mask = 1
one_way_collision/direction = Vector2( 0, 1 )
one_way_collision/max_depth = 2.0
constant_linear_velocity = Vector2( 0, 0 )
constant_angular_velocity = 0.0
friction = 1.0
bounce = 0.0

[node name="CollisionShape2D" type="CollisionShape2D" parent="Sprite"]

shape = SubResource( 1 )
trigger = false
_update_shape_index = 0


